"Abandoned Carts","Nicht bestellte Warenkörbe"
"Abandoned carts","Nicht bestellte Warenkörbe"
"Action","Aktion"
"Add to Cart","In den Warenkorb"
"Add to Compare","Auf die Vergleichsliste"
"Add to Wishlist","Auf den Wunschzettel"
"Any","Jede"
"Applied Coupon","Angewandter Gutschein"
"Applies to Any of the Specified Order Statuses","Trifft zu für jede der festgelegten Bestell-Statuse"
"Are you sure you want to refresh lifetime statistics? There can be performance impact during this operation.","Sind Sie sicher das Sie die Gesamtstatistiken aktualisieren wollen? Es kann zu Performance-Engpässen kommen wenn Sie diese Operation fortsetzen."
"Are you sure?","Sind Sie sicher?"
"Avg. Approved Rating","Durchschn. bestätigte Bewertung"
"Avg. Rating","Durchschn. Bewertung"
"Bestsellers","Bestseller"
"Bought from wishlists","Von Wunschzetteln gekauft"
"CSV","CSV"
"Carts","Warenkörbe"
"Compared Products Grid Template","Verglichene Produkte Gitter Vorlage"
"Compared Products List Template","Verglichene Produkte Listen Vorlage"
"Coupons","Gutscheine"
"Coupons Usage Report","Gutscheine Verwendungs-Bericht"
"Created At","Erstellt am"
"Current Month Starts","Aktueller Monat startet am"
"Customer","Kunde"
"Customer Name","Kundenname"
"Customer Tags","Kundenschlagworte"
"Customers","Kunden"
"Customers Report","Kundenbericht"
"Customers Reviews","Kundenmeinungen"
"Customers Tags","Kundenschlagworte"
"Customers by Number of Orders","Kunden nach Anzahl der Bestellungen"
"Customers by Orders Total","Kunden nach Bestellsummen"
"Customers by number of orders","Kunden nach Bestellanzahl"
"Customers by orders total","Kunden nach Bestellumsatz"
"Customers that have wishlist: %s%","Kunden, die einen Wunschzettel besitzen: %s%"
"Dashboard","Übersicht"
"Day","Tag"
"Default Recently Compared Products Count","Standardanzahl kürzlich verglichener Produkte"
"Default Recently Viewed Products Count","Standardanzahl kürzlich angesehener Produkte"
"Description","Beschreibung"
"Detail","Detail"
"Downloads","Downloads"
"Email","E-Mail"
"Empty Rows","Leere Spalten"
"Excel","Excel"
"Filter","Filter"
"First Name","Vorname"
"From","Vom"
"Guest","Gast"
"Hits","Aufrufe"
"ID","ID"
"IP Address","IP Adresse"
"Index model name must be defined","Index Model-Name muss definiert sein"
"Invalid date specified.","Ungültiges Datum angegeben"
"Invoiced","in Rechnung gestellt"
"Items in Cart","Produkte im Warenkorb"
"Last Name","Nachname"
"Last Review","Letzte Kundenmeinung"
"Link","Link"
"List of Products Recently Compared and Removed from the Compare List by Visitor","Liste von Produkten die kürzlich vom Besucher verglichen und wieder von der Vergleichsliste entfernt wurden."
"List of Products Recently Viewed by Visitor","Liste von Produkten die kürzlich vom Besucher angesehen wurden"
"Low Stock","Low Stock"
"Low stock","Geringer Lagerbestand"
"Match Period To","Match Period To"
"Month","Monat"
"Most Viewed","Am meisten angesehen"
"Name","Name"
"New Accounts","Neue Kundenkonten"
"No","Nein"
"No records found for this period.","Keine Aufzeichnungen für diesen Zeitraum gefunden."
"Number Added","Anzahl hinzugefügt"
"Number Fulfilled","Anzahl erfüllt"
"Number Of Reviews","Anzahl der Kundenmeinungen"
"Number Purchased","Anzahl der Verkäufe"
"Number Viewed","Anzahl der Ansichten"
"Number of Invoiced Orders","Anzahl von in Rechnung gestellten Bestellungen"
"Number of New Accounts","Anzahl der neuen Kundenkonten"
"Number of Products to display","Anzahl von Produkten die angezeigt werden sollen"
"Number of Reviews","Anzahl der Kundenmeinungen"
"Number of Times Deleted","Number of Times Deleted"
"Number of Total Tags","Gesamtanzahl der Schlagworte"
"Number of Unique Tags","Anzahl der einmaligen Schlagworte"
"Number of Views","Anzahl der Ansichten"
"Number of items bought from a wishlist: %s","Anzahl der von Wunschzetteln gekauften Produkte: %s"
"Number of times wishlists have been shared (emailed): %s","Anzahl der E-Mailversendungen eines Wunschzettels: %s"
"Number of wishlist conversions: %s","Anzahl der Wunschzettel-Umwandlungen: %s"
"Number of wishlist referrals: %s","Anzahl der Wunschzettelempfehlungen: %s"
"Number of wishlists: %s","Anzahl der Wunschzettel: %s"
"Order Status","Bestell Status"
"Order Taxes Report Grouped by Tax Rate","Bestell-Steuern Bericht gruppiert nach Steuersatz"
"Orders","Bestellungen"
"Out of stock","Ausverkauft"
"Period","Periode"
"Poducts Report","Produktbericht"
"Popular Tags","Beliebte Schlagworte"
"Popularity","Beliebtheit"
"Price","Preis"
"Product Name","Produktname"
"Product Reviews","Meinungen zu Produkten"
"Product Sku","Artikelnummer"
"Product Tags","Produktschlagworte"
"Products","Produkte"
"Products Ordered","Bestellte Produkte"
"Products Report","Produkte Bericht"
"Products Reviews","Meinungen zu Produkten"
"Products Tags","Produktschlagworte"
"Products in carts","Produkte in Warenkörben"
"Purchases","Einkäufe"
"Quantity Ordered","Bestellmenge"
"Quantity of Items","Artikelmenge"
"Recently Compared","Kürzlich verglichen"
"Recently Compared Products","Zuletzt verglichene Produkte"
"Recently Viewed","Kürzlich angesehen"
"Recently Viewed Products","Zuletzt angesehene Produkte"
"Recently Viewed/Compared Products","Kürzlich angesehene/verglichene Produkte"
"Refresh Lifetime Statistics","Gesamt-Statistiken aktualisieren"
"Refresh Statistics","Statistiken aktualisieren"
"Refresh Statistics for the Last Day","Statistik für den letzten Tag aktualisieren"
"Refunds","Erstattungen"
"Report","Bericht"
"Reports","Berichte"
"Results","Ergebnisse"
"Revenue","Einnahmen"
"Review","Kundenmeinung"
"Reviews","Bewertungen"
"Reviews for %s","Kundenmeinungen für %s"
"Sales","Verkäufe"
"Sales Report","Verkaufsbericht"
"Search Query","Suchanfrage"
"Search Terms","Suchbegriffe"
"Select day of the month.","Wählen Sie einen Tag des Monats."
"Shipping","Versand"
"Shopping Cart","Warenkorb"
"Show Actual Values","Aktuelle Werte anzeigen"
"Show Report","Bericht anzeigen"
"Show for Current","Anzeigen für aktuelle(n)"
"Specified","festgelegt"
"Statistics","Statistiken"
"Stock Qty","Lagerbestand"
"Submitted In","Übermittelt in"
"Submitted On","Übermittelt am"
"Subtotal","Zwischensumme"
"Tag","Schlagwort"
"Tag ""%s"" details","Details für Schlagwort ""%e"" "
"Tag Detail","Schlagwortdetails"
"Tag Name","Schlagwortname"
"Tag use","Schlagwortverwendung"
"Tags Submitted by %s","Schlagworte übermittelt von %s"
"Tags submitted to %s","Schlagworte übermittelt für %s"
"Tax","Steuern"
"Title","Titel"
"To","To"
"Total","Gesamt"
"Total Invoiced vs. Paid Report","Insgesamt in Rechnung gestellt vs. Verkaufsbericht"
"Total Ordered Report","Gesamtbericht-Bestellungen"
"Total Refunded Report","Gesamtbericht Erstattung"
"Total Shipped Report","Gesamtbericht-Versand"
"Total Tags","Gesamtanzahl Schlagworte"
"Total invoiced","Rechnungsgesamtbetrag"
"Total refunded","Gesamterstattung"
"Updated At","Aktualisiert am"
"Viewed Products Grid Template","Angesehene Produkte Gitter Vorlage"
"Viewed Products List Template","Angesehene Produkte Listen Vorlage"
"Visible In","Sichtbar in"
"Wishlist Report","Wunschzettelbericht"
"Wishlist vs. Regular Order","Wunschzettel gg. Bestellungen"
"Wishlists","Wunschzettel"
"Year","Jahr"
"Year-To-Date Starts","Aktuelles Jahr startet am"
"Yes","Ja"
"Your Recently Compared","Ihre zuletzt verglichenen Produkte"
"Your Recently Viewed","Ihre zuletzt angesehenen Produkte"
"undefined","undefined"
