"Enable Log Cleaning","Protokollbereinigung aktivieren"
"Error Email Recipient","Fehler E-Mailempfänger"
"Error Email Sender","Fehler E-Mailabsender"
"Error Email Template","Fehler E-Mail Vorlage"
"Frequency","Häufigkeit"
"Log Cleaning","Protokoll bereinigen"
"Log cleanup Warnings","Warnungen während der Protokollbereinigung"
"Save Log, Days","Protokoll speichern, Tage"
"Start Time","Startzeit"
